%YAML 1.1
%TAG !u! tag:unity3d.com,2011:
--- !u!1 &1263268925282868815
GameObject:
  m_ObjectHideFlags: 0
  m_CorrespondingSourceObject: {fileID: 0}
  m_PrefabInstance: {fileID: 0}
  m_PrefabAsset: {fileID: 0}
  serializedVersion: 6
  m_Component:
  - component: {fileID: 1263268925282868811}
  - component: {fileID: 1263268925282868810}
  - component: {fileID: 1263268925282868813}
  - component: {fileID: 1263268925282868812}
  m_Layer: 0
  m_Name: Asteroid (4)
  m_TagString: Untagged
  m_Icon: {fileID: 0}
  m_NavMeshLayer: 0
  m_StaticEditorFlags: 0
  m_IsActive: 1
--- !u!4 &1263268925282868811
Transform:
  m_ObjectHideFlags: 0
  m_CorrespondingSourceObject: {fileID: 0}
  m_PrefabInstance: {fileID: 0}
  m_PrefabAsset: {fileID: 0}
  m_GameObject: {fileID: 1263268925282868815}
  m_LocalRotation: {x: 0, y: 0, z: 0, w: 1}
  m_LocalPosition: {x: 10, y: 10, z: 0}
  m_LocalScale: {x: 1, y: 1, z: 1}
  m_Children: []
  m_Father: {fileID: 0}
  m_RootOrder: 0
  m_LocalEulerAnglesHint: {x: 0, y: 0, z: 0}
--- !u!212 &1263268925282868810
SpriteRenderer:
  m_ObjectHideFlags: 0
  m_CorrespondingSourceObject: {fileID: 0}
  m_PrefabInstance: {fileID: 0}
  m_PrefabAsset: {fileID: 0}
  m_GameObject: {fileID: 1263268925282868815}
  m_Enabled: 1
  m_CastShadows: 0
  m_ReceiveShadows: 0
  m_DynamicOccludee: 1
  m_MotionVectors: 1
  m_LightProbeUsage: 1
  m_ReflectionProbeUsage: 1
  m_RenderingLayerMask: 1
  m_RendererPriority: 0
  m_Materials:
  - {fileID: 2100000, guid: a97c105638bdf8b4a8650670310a4cd3, type: 2}
  m_StaticBatchInfo:
    firstSubMesh: 0
    subMeshCount: 0
  m_StaticBatchRoot: {fileID: 0}
  m_ProbeAnchor: {fileID: 0}
  m_LightProbeVolumeOverride: {fileID: 0}
  m_ScaleInLightmap: 1
  m_ReceiveGI: 1
  m_PreserveUVs: 0
  m_IgnoreNormalsForChartDetection: 0
  m_ImportantGI: 0
  m_StitchLightmapSeams: 1
  m_SelectedEditorRenderState: 0
  m_MinimumChartSize: 4
  m_AutoUVMaxDistance: 0.5
  m_AutoUVMaxAngle: 89
  m_LightmapParameters: {fileID: 0}
  m_SortingLayerID: 0
  m_SortingLayer: 0
  m_SortingOrder: 0
  m_Sprite: {fileID: -4202109266694858383, guid: 85b3f71b9f76b7c40a0ddee00b9b7993,
    type: 3}
  m_Color: {r: 1, g: 1, b: 1, a: 1}
  m_FlipX: 0
  m_FlipY: 0
  m_DrawMode: 0
  m_Size: {x: 4.71875, y: 6.71875}
  m_AdaptiveModeThreshold: 0.5
  m_SpriteTileMode: 0
  m_WasSpriteAssigned: 1
  m_MaskInteraction: 0
  m_SpriteSortPoint: 0
--- !u!60 &1263268925282868813
PolygonCollider2D:
  m_ObjectHideFlags: 0
  m_CorrespondingSourceObject: {fileID: 0}
  m_PrefabInstance: {fileID: 0}
  m_PrefabAsset: {fileID: 0}
  m_GameObject: {fileID: 1263268925282868815}
  m_Enabled: 1
  m_Density: 1
  m_Material: {fileID: 0}
  m_IsTrigger: 1
  m_UsedByEffector: 0
  m_UsedByComposite: 0
  m_Offset: {x: 0, y: 0}
  m_SpriteTilingProperty:
    border: {x: 0, y: 0, z: 0, w: 0}
    pivot: {x: 0.5, y: 0.5}
    oldSize: {x: 4.71875, y: 6.71875}
    newSize: {x: 4.71875, y: 6.71875}
    adaptiveTilingThreshold: 0.5
    drawMode: 0
    adaptiveTiling: 0
  m_AutoTiling: 0
  m_Points:
    m_Paths:
    - - {x: 2.359375, y: -1.296875}
      - {x: 2.359375, y: -1.1875}
      - {x: 2.21875, y: -1.015625}
      - {x: 1.96875, y: -0.75}
      - {x: 1.71875, y: -0.46875}
      - {x: 1.484375, y: -0.203125}
      - {x: 1.359375, y: -0.0625}
      - {x: 1.15625, y: 0.171875}
      - {x: 1.1875, y: 0.3125}
      - {x: 1.234375, y: 0.59375}
      - {x: 1.328125, y: 1.109375}
      - {x: 1.359375, y: 1.3125}
      - {x: 1.4375, y: 1.765625}
      - {x: 1.46875, y: 1.9375}
      - {x: 1.53125, y: 2.296875}
      - {x: 1.671875, y: 3.015625}
      - {x: 1.6875, y: 3.21875}
      - {x: 1.65625, y: 3.25}
      - {x: 1.46875, y: 3.265625}
      - {x: 0.984375, y: 3.28125}
      - {x: 0.96875, y: 3.296875}
      - {x: 0.5, y: 3.3125}
      - {x: 0.484375, y: 3.328125}
      - {x: 0.234375, y: 3.34375}
      - {x: 0, y: 3.359375}
      - {x: -0.578125, y: 3.359375}
      - {x: -0.640625, y: 3.296875}
      - {x: -0.921875, y: 2.96875}
      - {x: -1.40625, y: 2.40625}
      - {x: -1.78125, y: 1.96875}
      - {x: -1.9375, y: 1.8125}
      - {x: -1.921875, y: 1.625}
      - {x: -1.8125, y: 0.890625}
      - {x: -1.734375, y: 0.265625}
      - {x: -1.71875, y: 0.125}
      - {x: -1.671875, y: -0.25}
      - {x: -1.6875, y: -0.265625}
      - {x: -1.8125, y: -0.734375}
      - {x: -1.890625, y: -1.03125}
      - {x: -2, y: -1.453125}
      - {x: -2.03125, y: -1.625}
      - {x: -2.078125, y: -1.75}
      - {x: -2.140625, y: -1.984375}
      - {x: -2.296875, y: -2.578125}
      - {x: -2.359375, y: -2.8125}
      - {x: -2.359375, y: -2.984375}
      - {x: -2.140625, y: -3.03125}
      - {x: -1.90625, y: -3.046875}
      - {x: -1.53125, y: -3.09375}
      - {x: -0.6875, y: -3.203125}
      - {x: -0.203125, y: -3.265625}
      - {x: 0.15625, y: -3.3125}
      - {x: 0.53125, y: -3.359375}
      - {x: 0.828125, y: -3.359375}
      - {x: 0.859375, y: -3.34375}
      - {x: 1.46875, y: -2.515625}
      - {x: 2.25, y: -1.453125}
--- !u!114 &1263268925282868812
MonoBehaviour:
  m_ObjectHideFlags: 0
  m_CorrespondingSourceObject: {fileID: 0}
  m_PrefabInstance: {fileID: 0}
  m_PrefabAsset: {fileID: 0}
  m_GameObject: {fileID: 1263268925282868815}
  m_Enabled: 1
  m_EditorHideFlags: 0
  m_Script: {fileID: 11500000, guid: 35154849c6560544889c879bfcef636c, type: 3}
  m_Name: 
  m_EditorClassIdentifier: 
  minSpeed: -0.1
  maxSpeed: 0.1
  minScale: 0.75
  maxScale: 1.25
  rotationSpeed: 0
  size: 0
