%YAML 1.1
%TAG !u! tag:unity3d.com,2011:
--- !u!1 &3109448987953423095
GameObject:
  m_ObjectHideFlags: 0
  m_CorrespondingSourceObject: {fileID: 0}
  m_PrefabInstance: {fileID: 0}
  m_PrefabAsset: {fileID: 0}
  serializedVersion: 6
  m_Component:
  - component: {fileID: 3109448987953423091}
  - component: {fileID: 3109448987953423092}
  - component: {fileID: 3109448987953423093}
  - component: {fileID: 3109448987953423094}
  m_Layer: 0
  m_Name: Asteroid (1)
  m_TagString: Untagged
  m_Icon: {fileID: 0}
  m_NavMeshLayer: 0
  m_StaticEditorFlags: 0
  m_IsActive: 1
--- !u!4 &3109448987953423091
Transform:
  m_ObjectHideFlags: 0
  m_CorrespondingSourceObject: {fileID: 0}
  m_PrefabInstance: {fileID: 0}
  m_PrefabAsset: {fileID: 0}
  m_GameObject: {fileID: 3109448987953423095}
  m_LocalRotation: {x: 0, y: 0, z: 0, w: 1}
  m_LocalPosition: {x: 10, y: 40, z: 0}
  m_LocalScale: {x: 1, y: 1, z: 1}
  m_Children: []
  m_Father: {fileID: 0}
  m_RootOrder: 0
  m_LocalEulerAnglesHint: {x: 0, y: 0, z: 0}
--- !u!212 &3109448987953423092
SpriteRenderer:
  m_ObjectHideFlags: 0
  m_CorrespondingSourceObject: {fileID: 0}
  m_PrefabInstance: {fileID: 0}
  m_PrefabAsset: {fileID: 0}
  m_GameObject: {fileID: 3109448987953423095}
  m_Enabled: 1
  m_CastShadows: 0
  m_ReceiveShadows: 0
  m_DynamicOccludee: 1
  m_MotionVectors: 1
  m_LightProbeUsage: 1
  m_ReflectionProbeUsage: 1
  m_RenderingLayerMask: 1
  m_RendererPriority: 0
  m_Materials:
  - {fileID: 2100000, guid: a97c105638bdf8b4a8650670310a4cd3, type: 2}
  m_StaticBatchInfo:
    firstSubMesh: 0
    subMeshCount: 0
  m_StaticBatchRoot: {fileID: 0}
  m_ProbeAnchor: {fileID: 0}
  m_LightProbeVolumeOverride: {fileID: 0}
  m_ScaleInLightmap: 1
  m_ReceiveGI: 1
  m_PreserveUVs: 0
  m_IgnoreNormalsForChartDetection: 0
  m_ImportantGI: 0
  m_StitchLightmapSeams: 1
  m_SelectedEditorRenderState: 0
  m_MinimumChartSize: 4
  m_AutoUVMaxDistance: 0.5
  m_AutoUVMaxAngle: 89
  m_LightmapParameters: {fileID: 0}
  m_SortingLayerID: 0
  m_SortingLayer: 0
  m_SortingOrder: 0
  m_Sprite: {fileID: -833164383909932804, guid: 801e946ed3a0fe74983e4566b6453c15,
    type: 3}
  m_Color: {r: 1, g: 1, b: 1, a: 1}
  m_FlipX: 0
  m_FlipY: 0
  m_DrawMode: 0
  m_Size: {x: 5.640625, y: 5.1875}
  m_AdaptiveModeThreshold: 0.5
  m_SpriteTileMode: 0
  m_WasSpriteAssigned: 1
  m_MaskInteraction: 0
  m_SpriteSortPoint: 0
--- !u!60 &3109448987953423093
PolygonCollider2D:
  m_ObjectHideFlags: 0
  m_CorrespondingSourceObject: {fileID: 0}
  m_PrefabInstance: {fileID: 0}
  m_PrefabAsset: {fileID: 0}
  m_GameObject: {fileID: 3109448987953423095}
  m_Enabled: 1
  m_Density: 1
  m_Material: {fileID: 0}
  m_IsTrigger: 1
  m_UsedByEffector: 0
  m_UsedByComposite: 0
  m_Offset: {x: 0, y: 0}
  m_SpriteTilingProperty:
    border: {x: 0, y: 0, z: 0, w: 0}
    pivot: {x: 0.5, y: 0.5}
    oldSize: {x: 5.640625, y: 5.1875}
    newSize: {x: 5.640625, y: 5.1875}
    adaptiveTilingThreshold: 0.5
    drawMode: 0
    adaptiveTiling: 0
  m_AutoTiling: 0
  m_Points:
    m_Paths:
    - - {x: -0.2578125, y: -2.546875}
      - {x: -0.1171875, y: -2.53125}
      - {x: 0.0390625, y: -2.515625}
      - {x: 0.1796875, y: -2.5}
      - {x: 0.3359375, y: -2.484375}
      - {x: 0.4765625, y: -2.46875}
      - {x: 0.6328125, y: -2.453125}
      - {x: 0.7734375, y: -2.4375}
      - {x: 0.9296875, y: -2.421875}
      - {x: 1.0703125, y: -2.40625}
      - {x: 1.2265625, y: -2.390625}
      - {x: 1.3671875, y: -2.375}
      - {x: 1.5234375, y: -2.359375}
      - {x: 1.6640625, y: -2.34375}
      - {x: 1.8203125, y: -2.328125}
      - {x: 2.0859375, y: -2.296875}
      - {x: 2.1171875, y: -2.265625}
      - {x: 2.1328125, y: -2.21875}
      - {x: 2.3046875, y: -1.453125}
      - {x: 2.3671875, y: -1.171875}
      - {x: 2.6171875, y: -0.0625}
      - {x: 2.7890625, y: 0.703125}
      - {x: 2.8203125, y: 0.84375}
      - {x: 2.8203125, y: 1.03125}
      - {x: 2.5078125, y: 1.1875}
      - {x: 2.4765625, y: 1.1875}
      - {x: 2.1171875, y: 1.375}
      - {x: 2.0859375, y: 1.375}
      - {x: 1.7578125, y: 1.546875}
      - {x: 1.7265625, y: 1.546875}
      - {x: 1.2890625, y: 1.765625}
      - {x: 0.1953125, y: 2.203125}
      - {x: -0.6328125, y: 2.53125}
      - {x: -0.7890625, y: 2.59375}
      - {x: -0.9453125, y: 2.59375}
      - {x: -1.3828125, y: 2.25}
      - {x: -2.1171875, y: 1.6875}
      - {x: -2.7265625, y: 1.21875}
      - {x: -2.8203125, y: 1.140625}
      - {x: -2.8203125, y: -0.953125}
      - {x: -2.6328125, y: -1.140625}
      - {x: -1.1328125, y: -2.546875}
      - {x: -1.0859375, y: -2.59375}
      - {x: -0.7109375, y: -2.59375}
      - {x: -0.5546875, y: -2.578125}
      - {x: -0.4140625, y: -2.5625}
--- !u!114 &3109448987953423094
MonoBehaviour:
  m_ObjectHideFlags: 0
  m_CorrespondingSourceObject: {fileID: 0}
  m_PrefabInstance: {fileID: 0}
  m_PrefabAsset: {fileID: 0}
  m_GameObject: {fileID: 3109448987953423095}
  m_Enabled: 1
  m_EditorHideFlags: 0
  m_Script: {fileID: 11500000, guid: 35154849c6560544889c879bfcef636c, type: 3}
  m_Name: 
  m_EditorClassIdentifier: 
  minSpeed: -0.1
  maxSpeed: 0.1
  minScale: 0.75
  maxScale: 1.25
  rotationSpeed: 0
  size: 0
